Tame Your Data With R: ADVANCE Workshop 2
…
Here, our names were filtered by just the ones that appeared in both datasets, but we didnt pick up the extra columns from the second dataset like we did in the inner join. Theres nothing to spread on. Lets try a full join now.

full_join(x, y)

return all rows and all columns from both x and y. Where there are not matching values, returns NA for the one missing.

superFull <- super %>% full_join(second)

## Joining, by = "name"

superFull

## # A tibble: 29 x 7
##           name alignment    sex   age publisher         status measurement
##          <chr>     <chr>  <chr> <dbl>     <chr>          <chr>       <chr>
##  1 Black Widow      good female    38    Marvel           <NA>        <NA>
##  2     Magneto       bad   male    93    Marvel           <NA>        <NA>
##  3       Storm      good female   300    Marvel     homePlanet       Earth
##  4       Storm      good female   300    Marvel flyingSpeedmph        1000
##  5       Storm      good female   300    Marvel      mortality      mortal
##  6       Storm      good female   300    Marvel            age         300
##  7    Mystique       bad female   120    Marvel           <NA>        <NA>
##  8        Thor      good   male    29    Marvel     homePlanet      Asgard
##  9        Thor      good   male    29    Marvel flyingSpeedmph       24000
## 10        Thor      good   male    29    Marvel      mortality    immortal
## # ... with 19 more rows
…
